,MLA Name,MLA Parameters,MLA Train Accuracy Mean,MLA Test Accuracy Mean,MLA Test Accuracy 3*STD,MLA Time
0,RandomForestClassifier,"{'bootstrap': True, 'class_weight': None, 'criterion': 'gini', 'max_depth': None, 'max_features': 'auto', 'max_leaf_nodes': None, 'min_impurity_decrease': 0.0, 'min_impurity_split': None, 'min_samples_leaf': 1, 'min_samples_split': 2, 'min_weight_fraction_leaf': 0.0, 'n_estimators': 10, 'n_jobs': 1, 'oob_score': False, 'random_state': None, 'verbose': 0, 'warm_start': False}",0.8774296240655293,0.8495534844901934,0.006592328909639784,1.1444124937057496
2,DecisionTreeClassifier,"{'class_weight': None, 'criterion': 'gini', 'max_depth': None, 'max_features': None, 'max_leaf_nodes': None, 'min_impurity_decrease': 0.0, 'min_impurity_split': None, 'min_samples_leaf': 1, 'min_samples_split': 2, 'min_weight_fraction_leaf': 0.0, 'presort': False, 'random_state': None, 'splitter': 'best'}",0.8789903542344792,0.8472638753651411,0.005419745618468414,0.636764407157898
4,XGBClassifier,"{'base_score': 0.5, 'booster': 'gbtree', 'colsample_bylevel': 1, 'colsample_bytree': 1, 'gamma': 0, 'learning_rate': 0.1, 'max_delta_step': 0, 'max_depth': 3, 'min_child_weight': 1, 'missing': None, 'n_estimators': 100, 'n_jobs': 1, 'nthread': None, 'objective': 'binary:logistic', 'random_state': 0, 'reg_alpha': 0, 'reg_lambda': 1, 'scale_pos_weight': 1, 'seed': None, 'silent': True, 'subsample': 1}",0.7962895398886385,0.7947224926971762,0.00913254232894117,5.132992076873779
3,LinearSVC,"{'C': 1.0, 'class_weight': None, 'dual': True, 'fit_intercept': True, 'intercept_scaling': 1, 'loss': 'squared_hinge', 'max_iter': 1000, 'multi_class': 'ovr', 'penalty': 'l2', 'random_state': None, 'tol': 0.0001, 'verbose': 0}",0.5385449082519583,0.5388120740019475,0.175396078861558,25.45729625225067
1,LogisticRegressionCV,"{'Cs': 10, 'class_weight': None, 'cv': None, 'dual': False, 'fit_intercept': True, 'intercept_scaling': 1.0, 'max_iter': 100, 'multi_class': 'ovr', 'n_jobs': 1, 'penalty': 'l2', 'random_state': None, 'refit': True, 'scoring': None, 'solver': 'lbfgs', 'tol': 0.0001, 'verbose': 0}",0.4315186417235994,0.4313005981360411,0.0065090308269192335,7.284762573242188
