,MLA Name,MLA Parameters,MLA Train Accuracy Mean,MLA Test Accuracy Mean,MLA Test Accuracy 3*STD,MLA Time
3,LinearSVC,"{'C': 1.0, 'class_weight': None, 'dual': True, 'fit_intercept': True, 'intercept_scaling': 1, 'loss': 'squared_hinge', 'max_iter': 1000, 'multi_class': 'ovr', 'penalty': 'l2', 'random_state': None, 'tol': 0.0001, 'verbose': 0}",0.5003025188676241,0.4999479901924362,0.012464748286100464,5.0350817203521725
1,LogisticRegressionCV,"{'Cs': 10, 'class_weight': None, 'cv': None, 'dual': False, 'fit_intercept': True, 'intercept_scaling': 1.0, 'max_iter': 100, 'multi_class': 'ovr', 'n_jobs': 1, 'penalty': 'l2', 'random_state': None, 'refit': True, 'scoring': None, 'solver': 'lbfgs', 'tol': 0.0001, 'verbose': 0}",0.5032703881794732,0.49498476855635626,0.006965732965504174,0.6914690494537353
4,XGBClassifier,"{'base_score': 0.5, 'booster': 'gbtree', 'colsample_bylevel': 1, 'colsample_bytree': 1, 'gamma': 0, 'learning_rate': 0.1, 'max_delta_step': 0, 'max_depth': 3, 'min_child_weight': 1, 'missing': None, 'n_estimators': 100, 'n_jobs': 1, 'nthread': None, 'objective': 'binary:logistic', 'random_state': 0, 'reg_alpha': 0, 'reg_lambda': 1, 'scale_pos_weight': 1, 'seed': None, 'silent': True, 'subsample': 1}",0.513476419450371,0.4718255442454863,0.005338470148381445,0.8556397914886474
0,RandomForestClassifier,"{'bootstrap': True, 'class_weight': None, 'criterion': 'gini', 'max_depth': None, 'max_features': 'auto', 'max_leaf_nodes': None, 'min_impurity_decrease': 0.0, 'min_impurity_split': None, 'min_samples_leaf': 1, 'min_samples_split': 2, 'min_weight_fraction_leaf': 0.0, 'n_estimators': 10, 'n_jobs': 1, 'oob_score': False, 'random_state': None, 'verbose': 0, 'warm_start': False}",0.5170397732700698,0.4635114050078014,0.006333789003820329,0.16619293689727782
2,DecisionTreeClassifier,"{'class_weight': None, 'criterion': 'gini', 'max_depth': None, 'max_features': None, 'max_leaf_nodes': None, 'min_impurity_decrease': 0.0, 'min_impurity_split': None, 'min_samples_leaf': 1, 'min_samples_split': 2, 'min_weight_fraction_leaf': 0.0, 'presort': False, 'random_state': None, 'splitter': 'best'}",0.5190555042511862,0.4588082324095401,0.005704172375230643,0.045467472076416014
